Accession	UniProt
NP_000021.1	P21549
NP_000467.1	P00568
NP_000468.1	P02768
NP_001020609.1	Q6PHZ2
NP_001028849.1	Q9NZU7
NP_001073312.1	Q86V15
NP_001074288.1	A2BH40
NP_001074946.1	A2AHJ4
NP_001104591.1	D3YZP9
NP_001116244.1	Q99490
NP_001116450.1	Q9WUF3
NP_001135417.1	P62736
NP_001138303.1	Q99623
NP_001138924.1	Q8BW86
NP_001159869.1	Q6A058
NP_001161693.1	Q53TS8
NP_001163935.1	Q00537
NP_001170779.1	P05064
NP_001174.2	Q15904
NP_001177192.1	Q13901
NP_001186125.1	Q6NXE6
NP_001230575.1	O95400
NP_001231.2	O60563
NP_001231178.1	P27695
NP_001243111.1	Q6UB99
NP_001252.1	P50750
NP_001258625.1	O75027
NP_001258764.1	Q96HB5
NP_001264078.1	A2AJK6
NP_001265485.1	O15145
NP_001271.1	Q14011
NP_001276391.1	Q61391
NP_001278253.1	Q9P281
NP_001307192.1	Q9Y2T2
NP_001311.3	P67870
NP_001366220.1	O60885
NP_001631.3	P13798
NP_001681.2	P38606
NP_001704.2	Q93088
NP_002304.3	O14639
NP_002980.1	O00585
NP_003646.2	O00257
NP_003649.2	Q9UMQ3
NP_003777.2	O15438
NP_004222.2	Q16864
NP_004335.1	P41208
NP_004652.2	Q9UJX2
NP_004682.2	P61421
NP_004716.1	O43684
NP_005091.2	Q02952
NP_005116.1	O14618
NP_005148.2	P00519
NP_005180.1	Q14781
NP_006192.1	Q00536
NP_006420.1	Q99832
NP_006467.4	O75964
NP_006787.2	Q9Y4W6
NP_033017.2	P55096
NP_033360.2	Q61313
NP_033361.2	Q61312
NP_034013.1	P28033
NP_037052.1	P11275
NP_038476.2	Q9NRL2
NP_055365.2	Q9BWT7
NP_055695.2	Q8IX05
NP_055847.1	Q9NTI5
NP_056153.2	Q8IXJ9
NP_056585.2	Q03288
NP_057494.3	Q9NZZ3
NP_057691.1	Q9UH62
NP_058068.2	O54967
NP_058647.1	Q9UBR5
NP_060534.1	Q53H80
NP_060542.4	Q9H583
NP_060634.2	Q9NVM9
NP_060739.2	Q9BV57
NP_060918.2	Q86VP6
NP_061155.2	Q9NQW6
NP_064411.2	Q7TSC1
NP_064447.1	Q9NY43
NP_065170.2	Q6ICH7
NP_065178.1	Q9P1U1
NP_067077.1	P57076
NP_079040.2	Q9H7T0
NP_079285.2	Q66GS9
NP_080370.2	Q6UQ17
NP_084532.2	Q67FY2
NP_112148.2	Q99NH0
NP_112190.2	Q9H211
NP_115597.3	Q8TD26
NP_115666.2	Q9BQI6
NP_149053.1	Q86WG3
NP_149073.1	P82979
NP_473426.2	Q924C5
NP_659162.3	Q8K3A9
NP_663586.3	Q8BX02
NP_689914.3	Q86UQ4
NP_766531.2	Q3TSG4
XP_005267607.1	Q9Y4F5
