Accession	UniProt
NP_000035.2	P10275
NP_000129.3	P35555
NP_000256.4	P14598
NP_000303.1	P04070
NP_000379.2	P41180
NP_000380.1	P38936
NP_000475.1	P05067
NP_000601.3	P16070
NP_000629.3	P04004
NP_001001890.1	Q01196
NP_001005743.1	P49757
NP_001035887.1	O15427
NP_001070737.1	O43516
NP_001074594.1	Q0VGT2
NP_001076095.1	P36425
NP_001078903.1	P37998
NP_001081728.1	Q91372
NP_001104595.1	Q5JU85
NP_001122316.1	P51532
NP_001129670.1	Q9UM11
NP_001156423.1	Q9HCH5
NP_001171468.1	Q8N4B1
NP_001171809.1	Q8TAB3
NP_001189727.1	Q39096
NP_001195.2	Q13873
NP_001247259.1	P20482
NP_001258714.1	Q13409
NP_001263400.1	Q9ULV4
NP_001287455.1	Q27368
NP_001308400.1	Q9Y2W1
NP_001457.1	Q14332
NP_001601.1	P11117
NP_001659.1	P27540
NP_001728.1	P02748
NP_001750.1	P30279
NP_001751.1	P30281
NP_001935.2	P32926
NP_001964.2	P28324
NP_002010.2	P17948
NP_002030.2	Q13480
NP_002137.4	P14651
NP_002327.2	O75581
NP_002377.4	Q01726
NP_002510.2	Q14207
NP_002649.1	P00749
NP_002759.2	Q9HD42
NP_002848.1	P40855
NP_002990.2	P31431
NP_002996.2	P16109
NP_003102.1	Q02447
NP_003118.2	Q13813
NP_003673.3	Q8WXG6
NP_003723.1	O60516
NP_003811.2	Q92956
NP_004051.1	P51959
NP_004087.1	Q13542
NP_004265.3	Q13023
NP_004351.1	P12830
NP_004495.2	P52594
NP_004705.1	Q9Y463
NP_004951.1	P35637
NP_005424.1	P07947
NP_005451.2	Q9Y6H5
NP_005561.1	P49257
NP_005702.3	O43854
NP_005974.2	Q13309
NP_005976.2	O95863
NP_006280.3	Q9Y490
NP_008982.1	Q9UNN5
NP_009421.3	P35845
NP_010382.3	Q03834
NP_011412.1	P02406
NP_011896.1	P38766
NP_012484.1	P47046
NP_012577.1	P47110
NP_013187.1	Q12267
NP_015500.1	Q06616
NP_032140.1	O70237
NP_033558.3	Q60596
NP_034156.2	Q9QWY8
NP_034248.2	P08152
NP_034363.1	P11276
NP_035741.2	P27512
NP_035831.2	P20152
NP_055464.1	Q14151
NP_055551.1	Q15004
NP_055828.2	O60341
NP_055848.1	Q96RU3
NP_055979.2	Q8IWE5
NP_056280.2	Q8TEQ6
NP_056442.2	Q5SW96
NP_056953.2	P37231
NP_060944.3	Q2M2Z5
NP_061997.1	O35550
NP_064544.2	Q9H4L7
NP_065145.2	Q7LBR1
NP_065712.1	Q9GZX7
NP_065973.2	Q9BYP7
NP_068779.1	Q07820
NP_078846.2	Q5TBB1
NP_079429.2	O94823
NP_082187.1	Q9CW46
NP_110454.1	P98158
NP_110484.1	Q07014
NP_114032.2	Q00839
NP_114432.2	Q9BX63
NP_115568.2	Q9UD71
NP_115763.2	Q96J92
NP_445926.1	O35274
NP_476477.1	O88339
NP_490955.1	Q95XR4
NP_524929.1	Q9Y134
NP_542411.2	P13942
NP_567651.1	Q38898
NP_612564.1	O00206
NP_619527.1	O43521
NP_659133.1	Q9ER39
NP_659507.3	Q9JKY5
NP_665741.1	Q9BZF2
NP_683747.1	P18654
NP_690008.2	Q9Y2N7
NP_694708.2	Q8BH64
NP_726773.2	Q8IRW8
NP_742072.2	P24155
NP_766105.2	Q8BX09
NP_766540.2	Q8BUV3
NP_777199.1	Q9XSC3
NP_997563.1	O54918
NP_999471.1	Q28956
XP_008761099.1	Q9Z0G8
NP_000167.1	P04150
NP_000211.1	P48048
NP_000336.1	P37840
NP_000528.1	P00797
NP_000620.2	P17181
NP_001001331.1	Q01814
NP_001002018.1	Q9NWW0
NP_001019801.3	Q13950
NP_001020105.1	Q92558
NP_001033810.1	P83102
NP_001083918.1	O42579
NP_001107017.1	Q9ERG0
NP_001139325.1	O76024
NP_001159400.2	Q14118
NP_001160135.1	Q9BZW8
NP_001164189.1	P56945
NP_001165644.1	Q8WYN3
NP_001190305.1	Q8LPL5
NP_001191981.1	P97875
NP_001265234.1	Q969M7
NP_001271432.1	O70589
NP_001292590.1	E7FDB3
NP_001297516.1	Q63943
NP_001308717.1	Q13191
NP_001461.1	Q9UBS5
NP_001648.1	P15514
NP_001662.1	P07306
NP_001758.2	P06729
NP_002237.1	O14649
NP_002339.2	Q9HBG7
NP_002384.2	O15151
NP_002437.2	Q02779
NP_002494.2	Q15653
NP_002702.2	Q16821
NP_002705.2	Q96QC0
NP_002721.1	P17612
NP_003080.2	P08621
NP_003226.4	P01266
NP_003866.1	P49915
NP_003960.1	P61081
NP_004025.1	P20073
NP_004084.1	P52799
NP_004102.1	P39748
NP_004420.1	P98172
NP_004517.2	P49736
NP_005135.2	O43593
NP_005226.1	Q15303
NP_005364.1	P40238
NP_005427.2	Q16204
NP_005512.1	P31314
NP_005643.2	Q15554
NP_005949.1	P48039
NP_006176.2	Q14980
NP_006582.1	Q15054
NP_006592.3	Q15185
NP_008835.5	P78527
NP_009660.1	P38261
NP_010503.1	P14737
NP_011836.1	P33400
NP_012371.2	P06244
NP_012961.3	P69771
NP_013236.1	Q12098
NP_015017.1	Q08887
NP_015236.1	Q12224
NP_032880.1	P05132
NP_033548.1	P27467
NP_035074.2	Q61006
NP_036006.1	Q9Z0P5
NP_036365.1	Q15042
NP_036390.3	Q9Y5J3
NP_036973.1	Q63155
NP_037506.2	Q8WUM4
NP_038536.2	P41971
NP_041277.1	P03300
NP_055166.1	Q9BR01
NP_055271.2	Q53EL6
NP_056097.1	Q7Z460
NP_057441.1	Q9UHB6
NP_057664.1	Q9NPG4
NP_058869.1	P29457
NP_058947.1	P08033
NP_061039.3	Q63HQ0
NP_061115.2	Q96HZ4
NP_061752.1	Q9Y5F6
NP_064656.2	A6X8Z5
NP_071636.1	Q05175
NP_073577.3	Q9H2X6
NP_082288.1	Q924T3
NP_083157.1	Q3U182
NP_113623.1	Q9H0W7
NP_113910.1	Q63524
NP_114429.2	Q9H0W5
NP_115590.1	Q9H6Q3
NP_200440.1	Q9FMA3
NP_443748.2	Q91V27
NP_511069.3	Q9XTN4
NP_542421.2	Q8VHK2
NP_587958.1	O59757
NP_588075.1	P78953
NP_593795.1	O42858
NP_659558.1	Q62848
NP_740769.2	Q811U3
NP_742020.1	Q8K4M9
NP_776248.1	P56915
NP_777261.1	Q27974
NP_919269.2	Q702N8
NP_990454.1	Q90623
NP_000029.2	P25054
NP_000045.1	P30518
NP_000067.1	P49918
NP_000122.1	P08709
NP_000337.1	P48436
NP_000386.1	P32927
NP_000409.1	P24394
NP_000454.1	P22309
NP_001001894.1	P53804
NP_001019397.1	P84077
NP_001029.1	P37088
NP_001031185.1	Q9SSA8
NP_001035519.1	O14917
NP_001076213.1	P11845
NP_001077280.1	P19491
NP_001080949.1	Q91647
NP_001091954.1	Q9Y6R1
NP_001092108.1	Q8NCN4
NP_001101.1	O14672
NP_001106670.1	P70670
NP_001106860.1	Q61214
NP_001106963.1	Q9UHD8
NP_001106994.1	O55043
NP_001120679.1	Q9NZC9
NP_001159640.1	Q9HC98
NP_001171808.1	Q9UIB8
NP_001230854.1	Q16644
NP_001245.1	Q99741
NP_001258898.1	P08238
NP_001300879.1	Q96GD4
NP_001306167.1	O75152
NP_001308307.1	O00443
NP_001317528.1	Q9UHF7
NP_001743.1	P04040
NP_001973.2	P21860
NP_002006.2	Q12778
NP_002126.2	P22736
NP_002138.1	P09067
NP_002323.2	Q07954
NP_002348.1	Q05195
NP_002553.3	Q99572
NP_002567.3	Q13153
NP_002692.2	Q01860
NP_002840.2	Q15256
NP_002892.1	Q15293
NP_003153.2	O43815
NP_003172.1	O15178
NP_003797.1	O00198
NP_003830.1	Q9Y6Q6
NP_003876.1	Q15078
NP_003905.1	P78396
NP_003933.1	O75676
NP_003992.3	P31994
NP_004355.2	P49715
NP_004371.2	Q92793
NP_004603.1	P36897
NP_004703.1	O14964
NP_004901.2	O00562
NP_004955.2	Q13547
NP_005260.1	P08151
NP_005303.2	Q13905
NP_005397.1	Q13464
NP_005452.2	Q9Y5Q3
NP_005689.2	O14828
NP_006051.1	Q13422
NP_006256.1	O60216
NP_006776.1	Q9UDY8
NP_006814.1	P61925
NP_009178.3	Q9UMZ2
NP_009759.3	P29366
NP_009914.2	P25558
NP_010707.3	Q04049
NP_011757.3	P53309
NP_012075.1	P11792
NP_012161.1	P40485
NP_012763.1	P36054
NP_012821.2	P34244
NP_012924.2	P36108
NP_013762.1	Q02630
NP_013928.1	P28519
NP_014676.1	P39875
NP_014726.1	Q12416
NP_015343.1	Q12495
NP_031572.1	O70337
NP_033089.2	O08850
NP_034721.1	P05627
NP_035148.1	Q64337
NP_035397.2	P97428
NP_035622.1	Q9WTK7
NP_036374.1	O94907
NP_043958.1	Q98178
NP_054865.2	Q9GZY6
NP_055296.2	Q9UBZ4
NP_055527.1	O15047
NP_056040.2	Q8WUY3
NP_056989.2	O15164
NP_057232.2	Q9Y566
NP_057302.1	Q9UBT6
NP_057354.1	Q9Y5W3
NP_058585.2	Q63ZV0
NP_058914.2	Q62799
NP_060140.2	Q96FW1
NP_060436.4	A5D8V6
NP_060952.2	Q9ULH1
NP_061132.2	Q9NRI5
NP_061869.2	Q9HCJ0
NP_061908.1	Q9HCL0
NP_062182.1	P42260
NP_062361.1	Q9JIF3
NP_065872.1	Q709C8
NP_065897.1	Q9P270
NP_066245.1	Q05128
NP_068360.4	Q923D5
NP_071553.1	O08838
NP_071910.3	Q9H2S9
NP_077038.2	Q99N13
NP_080006.3	Q5S006
NP_110378.3	P37275
NP_110385.1	Q969R2
NP_112284.1	Q00657
NP_112462.1	Q9WTQ5
NP_112497.2	Q9BZ71
NP_112599.2	Q9BWW7
NP_113851.1	Q62666
NP_115912.1	Q9BZF3
NP_115969.2	Q9BYE0
NP_174212.2	Q9LP46
NP_177178.1	P42751
NP_199567.1	Q8LG88
NP_476923.1	Q26263
NP_478056.1	Q9UKV0
NP_524013.1	Q9V3C7
NP_573571.1	Q8TF74
NP_593477.1	O13771
NP_598236.1	Q8VIP2
NP_612153.2	Q6ISU1
NP_612547.1	Q08877
NP_649324.1	O97143
NP_659146.1	Q8K4Z3
NP_694871.1	O73557
NP_732033.1	Q8SWR8
NP_777237.3	P26285
NP_853530.2	P39880
NP_891549.1	Q8IUC6
NP_937884.1	Q04637
NP_938009.1	Q86Z02
NP_942054.1	Q6TLK4
NP_955630.3	Q13936
NP_989704.1	Q6VYA3
NP_990788.2	P00523
XP_660459.1	Q00202
YP_001039967.1	A3EXD5
YP_401713.1	P03188
YP_680426.1	P03135
NP_000084.3	P20908
NP_000203.2	P05106
NP_000225.1	P18858
NP_000368.1	P42768
NP_000416.1	P32004
NP_000553.1	P07357
NP_000917.3	P06401
NP_001012526.2	Q5BIV9
NP_001018864.2	Q15051
NP_001034707.1	Q9NS37
NP_001035147.1	P10451
NP_001081874.1	Q9YGY0
NP_001083847.1	Q9PTK7
NP_001106962.1	Q4VCS5
NP_001120654.1	Q53EZ4
NP_001123159.1	B1Q236
NP_001136020.1	Q92698
NP_001154916.1	Q9NP31
NP_001159374.1	Q02248
NP_001172006.1	P52565
NP_001182682.1	Q8WTV1
NP_001229.1	P24864
NP_001233.1	P26842
NP_001243019.1	P15336
NP_001245540.1	P50445
NP_001245861.1	Q9VQU9
NP_001260291.1	P16554
NP_001308632.1	Q15596
NP_001323.1	Q9UQB3
NP_001428.1	Q92731
NP_001560.2	P51617
NP_001562.1	Q14653
NP_002028.1	P06241
NP_002347.5	P29966
NP_002472.2	O60237
NP_002511.1	P06748
NP_002568.2	Q13177
NP_002731.4	P41743
NP_002932.1	Q9Y6N7
NP_002970.2	P22307
NP_003119.2	Q01082
NP_003588.1	O14901
NP_003617.1	Q13136
NP_003746.2	O75821
NP_003751.2	O43432
NP_003791.3	O60942
NP_003815.1	Q13158
NP_004547.2	O00221
NP_004958.2	P21815
NP_005179.2	P22681
NP_005234.1	Q01844
NP_005408.1	P12931
NP_005566.2	Q9UIQ6
NP_005572.2	P50895
NP_005618.2	O00141
NP_006092.1	O14777
NP_006120.1	P13497
NP_006226.2	Q16633
NP_006283.1	Q99816
NP_006293.2	Q13724
NP_006302.2	O75376
NP_006806.1	Q15363
NP_006836.2	Q99661
NP_009455.3	P38170
NP_010493.1	P39001
NP_010579.1	P24276
NP_010769.3	P11491
NP_011393.3	P32505
NP_012122.3	P40460
NP_014141.1	P53847
NP_014371.1	P53968
NP_015332.1	Q12188
NP_031587.1	O35607
NP_033425.3	O35305
NP_033525.2	P70460
NP_035496.1	Q9R1Z8
NP_035732.2	P26039
NP_036325.2	Q9ULV1
NP_036354.1	Q9UIF7
NP_036791.1	P60042
NP_037416.1	Q9NP87
NP_038514.1	P08920
NP_040332.1	P26806
NP_040831.1	P11223
NP_041006.1	P03383
NP_041217.1	P03331
NP_041836.1	P36762
NP_054829.2	Q12972
NP_055139.4	Q9UHK6
NP_056893.1	P07567
NP_057563.3	Q8N114
NP_057854.1	P04618
NP_057856.1	P04578
NP_057858.1	P03334
NP_058894.1	P35465
NP_061972.1	Q9NTI7
NP_064376.1	Q9JM90
NP_065907.2	Q63HK5
NP_066243.1	P18272
NP_066267.2	Q12955
NP_071304.2	Q9ESJ1
NP_078862.4	Q96SU4
NP_078943.1	Q9H9H4
NP_079484.1	Q9GZP0
NP_083798.2	Q8VDU0
NP_444279.2	Q8N137
NP_444284.1	P24385
NP_499007.1	P14585
NP_509396.1	G5EFD2
NP_511060.2	P40688
NP_511099.2	Q9W349
NP_524187.1	P10734
NP_524617.3	P19538
NP_524999.2	Q9VB22
NP_565096.1	Q9S7M2
NP_573497.1	Q99ML1
NP_594486.1	Q9P7T4
NP_598417.2	Q64010
NP_653081.1	Q9H1P3
NP_689472.3	Q7Z2Z1
NP_689991.1	Q8NHS3
NP_733796.2	Q15583
NP_989854.1	P54939
NP_990315.1	P49024
NP_997080.1	Q13444
XP_016858049.1	Q6PGN9
YP_401631.1	P13285
NP_000312.2	P06400
NP_000440.1	P48382
NP_000512.1	P07686
NP_000709.1	Q00975
NP_001003286.1	P27869
NP_001005360.1	P50570
NP_001018181.1	Q9UTN3
NP_001020560.1	Q01432
NP_001021907.1	G5EGK5
NP_001028750.1	Q96BR1
NP_001030.2	P51170
NP_001036046.1	O95149
NP_001078927.1	O60716
NP_001091679.1	P35222
NP_001094106.1	P56603
NP_001119800.1	Q8TBB1
NP_001123617.1	P46937
NP_001129471.1	Q8N2Y8
NP_001129557.1	Q02053
NP_001185951.2	O43303
NP_001230806.1	P50616
NP_001262515.1	Q9VG13
NP_001269.3	O15111
NP_001310537.1	Q08999
NP_001372.1	Q99704
NP_001421.2	Q99814
NP_001609.2	P09874
NP_001941.2	Q16254
NP_002101.2	P08631
NP_002157.2	Q02363
NP_002749.2	P52564
NP_003176.2	O00268
NP_003213.1	Q92754
NP_003318.1	P43489
NP_003480.2	P48552
NP_003655.3	O00203
NP_003943.2	Q9UBS0
NP_004194.3	Q99640
NP_004327.1	O43683
NP_004454.2	P98174
NP_004552.2	O14753
NP_004737.2	O14490
NP_004835.2	O60239
NP_005219.2	P00533
NP_005515.1	Q14469
NP_005797.1	Q13516
NP_005924.2	Q03164
NP_006272.2	Q13188
NP_006442.2	Q9H074
NP_009645.1	P15873
NP_011362.3	P53112
NP_012659.1	P47160
NP_013098.1	Q12369
NP_013232.1	P21192
NP_031657.1	P25322
NP_031829.2	Q60598
NP_032442.1	P09450
NP_034818.1	Q61792
NP_035010.3	P09405
NP_035196.2	O54943
NP_036856.1	P12371
NP_052032.1	Q9Q8T6
NP_055246.2	Q9ULE6
NP_055928.3	O43149
NP_055951.2	Q9NY15
NP_056548.2	Q8C3Q9
NP_057850.1	P04591
NP_058545.1	P70671
NP_058990.1	Q9Z0W5
NP_060921.3	Q9HC77
NP_066268.1	P09471
NP_067047.4	Q96JM2
NP_067058.1	Q9UBC2
NP_071926.4	Q8WWN8
NP_079108.3	Q8TB24
NP_113916.1	Q05140
NP_116584.2	P49137
NP_195052.1	Q9S7I8
NP_203519.1	Q14790
NP_445946.2	Q9JJZ1
NP_473455.2	Q8N103
NP_498040.1	Q18221
NP_524584.2	Q24167
NP_598545.2	Q9EPK5
NP_598623.1	Q8VCM7
NP_612222.1	O39521
NP_689822.2	Q6PJW8
NP_722560.1	Q05397
NP_775188.1	Q12968
NP_000057.3	P07358
NP_000170.1	P52701
NP_000200.1	P52945
NP_000323.2	P54253
NP_000451.1	P40225
NP_000483.3	P13569
NP_000543.3	P04275
NP_000578.2	P10643
NP_000867.3	P11717
NP_001002860.2	Q9P203
NP_001007027.1	P54259
NP_001007068.1	O00560
NP_001008781.2	Q8TDW7
NP_001022713.1	P34552
NP_001036783.1	Q6PJG2
NP_001095886.1	P01042
NP_001103348.1	Q9Y458
NP_001118.3	Q10567
NP_001121620.1	P02786
NP_001129994.1	P15381
NP_001135762.1	O60291
NP_001138724.1	P27918
NP_001155855.1	Q92974
NP_001165980.1	Q9UPW6
NP_001185768.1	Q61140
NP_001189330.1	P17789
NP_001229831.1	Q92667
NP_001239447.1	Q99K48
NP_001243222.1	P05787
NP_001252.1	P50750
NP_001257328.1	Q71U36
NP_001269463.1	Q9NPC2
NP_001269865.1	Q15468
NP_001274276.1	P17542
NP_001277478.1	Q02858
NP_001334493.1	Q8CFN5
NP_001518.3	Q92769
NP_001521.1	Q16665
NP_001615.2	Q9Y4K1
NP_001641.1	P55087
NP_001666.2	P18848
NP_001762.2	P20273
NP_002092.1	P04921
NP_002175.2	P40189
NP_002533.1	O15527
NP_002600.1	P09619
NP_002925.1	P10153
NP_003092.4	P35610
NP_003104.2	P23497
NP_005550.2	P25391
NP_005644.2	Q12800
NP_009534.1	P38207
NP_010311.1	Q00816
NP_011085.1	P40095
NP_011774.1	P07276
NP_012814.1	P34252
NP_014919.3	P12962
NP_015566.1	Q05586
NP_031374.2	P18850
NP_033994.1	P09803
NP_034978.3	P06876
NP_034994.2	Q99104
NP_036214.2	Q8WW38
NP_036923.1	Q63470
NP_037446.1	Q8WV28
NP_037497.1	Q9UJY5
NP_041326.1	P03129
NP_055079.3	O00444
NP_055205.2	Q7KZF4
NP_055238.1	Q9UHB7
NP_055503.1	Q92738
NP_055626.3	Q5T8A7
NP_055826.1	Q9Y6X6
NP_056107.1	Q9BSJ8
NP_060087.3	P46531
NP_060123.3	Q7RTS9
NP_061852.3	Q9H4A3
NP_065896.1	Q9BZ72
NP_066964.1	P13010
NP_068659.1	P30305
NP_071520.1	Q62915
NP_078858.4	Q6V0I7
NP_115766.3	Q9BYG3
NP_177710.1	Q9SYQ8
NP_446353.3	P97837
NP_493339.1	G5EC37
NP_524342.3	P20193
NP_571578.2	P57094
NP_593523.1	Q9HDY1
NP_594602.1	Q10475
NP_619566.1	Q9WIJ4
NP_663623.1	Q8N697
NP_690588.1	Q8JUX6
NP_776590.1	P21457
NP_848777.1	Q8BHE3
NP_988857.1	Q90ZZ6
XP_009296158.1	P26630
XP_013457658.1	Q9M7I2
XP_015143689.1	P12003
XP_018635197.1	B6KV60
YP_233054.1	P26672
YP_401722.1	P03230
NP_000015.2	P07550
NP_000056.2	P13671
NP_000114.3	P28715
NP_000124.1	P00740
NP_000159.3	P10071
NP_000199.2	P06213
NP_000202.3	P05107
NP_000204.3	P16144
NP_000213.1	P10721
NP_000236.2	P08581
NP_000237.2	P33076
NP_000262.2	O15118
NP_000302.1	P04156
NP_000333.1	P02730
NP_000367.1	P11473
NP_000371.1	P23025
NP_000495.1	P00742
NP_000501.1	P01225
NP_000518.1	P01130
NP_000531.2	P21817
NP_000541.1	P17643
NP_000607.1	P01730
NP_000656.1	P22303
NP_000724.1	P07766
NP_000731.1	P20309
NP_000850.1	P04035
NP_000869.1	P14784
NP_000907.2	P30559
NP_000921.1	P00750
NP_000940.1	P16471
NP_000955.1	P10276
NP_001002012.1	P17156
NP_001006947.2	P18827
NP_001009566.1	O94985
NP_001014431.1	P31749
NP_001014577.1	P14003
NP_001014890.1	P02699
NP_001020330.1	P04233
NP_001026460.2	P18870
NP_001026974.1	O75444
NP_001029978.1	P22457
NP_001030305.1	O88829
NP_001035919.1	O43294
NP_001036068.1	P29375
NP_001036194.1	P09769
NP_001057.1	P20333
NP_001058.2	P11388
NP_001070675.1	O94979
NP_001073682.1	P00743
NP_001073852.1	P36383
NP_001073887.1	O95886
NP_001073998.2	A6NGB9
NP_001075653.1	P00489
NP_001091998.1	A6H8H5
NP_001103241.1	P18652
NP_001103692.1	O88809
NP_001104547.1	P15311
NP_001104566.1	P25911
NP_001106842.1	O55207
NP_001107593.1	O14757
NP_001107595.1	P19419
NP_001120731.1	O88898
NP_001122080.1	O60336
NP_001123914.1	P01112
NP_001137357.1	O14974
NP_001139291.2	P35712
NP_001152839.1	O35973
NP_001155905.1	P06240
NP_001158087.1	O60353
NP_001158884.1	P19838
NP_001159.2	O15392
NP_001178296.1	P00515
NP_001185752.1	P12023
NP_001186360.2	P13864
NP_001193.2	P12644
NP_001193973.1	O75122
NP_001202.5	O60566
NP_001229721.1	O60641
NP_001234.3	P28908
NP_001241.1	P25942
NP_001245516.1	O97428
NP_001258009.1	P0C5J9
NP_001260458.1	P09052
NP_001265510.1	P01193
NP_001265598.1	O95644
NP_001269311.1	O95997
NP_001275905.1	P12956
NP_001276752.1	P09958
NP_001285501.1	P22814
NP_001310218.1	O76039
NP_001311031.1	O95600
NP_001316868.1	P10600
NP_001347.3	O00571
NP_001350268.1	O95772
NP_001351807.1	P35236
NP_001353449.1	P20020
NP_001356715.1	P01116
NP_001358417.1	O43681
NP_001370.1	P26358
NP_001381310.1	O35625
NP_001387330.1	O75367
NP_001394522.1	P38398
NP_001427.2	P22087
NP_001446.1	O43524
NP_001561.3	O43187
NP_001617.1	P31751
NP_001658.2	P36404
NP_001661.1	O00192
NP_001720.1	P35070
NP_001780.2	P30304
NP_001940.1	O00716
NP_002096.1	P16104
NP_002105.3	P15822
NP_002135.2	P14653
NP_002136.1	P14652
NP_002178.2	P29460
NP_002182.1	P05111
NP_002202.2	P05556
NP_002219.1	P05412
NP_002250.2	P26715
NP_002289.2	P13796
NP_002324.2	O75074
NP_002333.1	P36941
NP_002341.1	P07948
NP_002346.1	P20645
NP_002430.3	P20585
NP_002476.2	O60934
NP_002520.2	P04629
NP_002547.1	P22059
NP_002581.2	O95206
NP_002590.1	O00408
NP_002658.1	P26678
NP_002883.3	P29374
NP_002948.1	P19793
NP_003122.1	P11831
NP_003152.1	P23443
NP_003211.1	P05549
NP_003277.1	P11387
NP_003381.1	P30291
NP_003398.3	P26651
NP_003473.3	O14686
NP_003493.1	O15169
NP_003498.1	O75084
NP_003646.2	O00257
NP_003749.2	O75822
NP_003812.1	O43353
NP_003932.3	O00401
NP_004250.4	O94762
NP_004334.1	P27797
NP_004402.1	O14576
NP_004408.1	P28562
NP_004439.2	P04626
NP_004493.3	P09629
NP_004565.1	O43236
NP_004637.1	O60500
NP_004746.2	O75582
NP_004987.2	P33527
NP_005185.2	P17676
NP_005229.1	P14921
NP_005243.1	P01100
NP_005326.3	P14317
NP_005329.3	O00291
NP_005338.1	P11021
NP_005339.3	P07900
NP_005345.3	P17535
NP_005366.2	P10242
NP_005372.2	P19338
NP_005418.1	O15350
NP_005477.2	O75674
NP_005535.1	P35568
NP_005552.3	P11279
NP_005874.1	O95996
NP_006067.3	O95081
NP_006130.1	P10747
NP_006230.2	O14830
NP_006288.2	P18887
NP_006359.3	O43889
NP_006716.3	P30203
NP_006727.2	P25686
NP_008846.2	O75695
NP_009125.1	O96017
NP_009362.1	P00549
NP_009714.3	P38283
NP_010016.2	P25336
NP_010055.1	P35197
NP_010117.1	P04819
NP_010388.1	P32917
NP_010510.3	P02293
NP_010530.1	P35056
NP_010643.3	P32380
NP_010914.3	P33767
NP_011315.3	P32803
NP_011843.1	P21957
NP_012341.1	P09119
NP_012348.1	P32944
NP_012378.1	P21268
NP_012394.1	P14680
NP_012610.1	P32458
NP_012809.1	P26793
NP_013283.1	P09959
NP_013418.2	P32457
NP_013441.1	P37370
NP_013691.1	P12887
NP_013915.1	P35187
NP_014345.3	P38590
NP_014821.3	P28006
NP_014860.1	P38630
NP_014974.3	P34758
NP_015054.1	P32526
NP_015444.1	P24869
NP_031385.2	O15234
NP_031884.1	O08808
NP_032589.1	P25206
NP_032998.1	P26350
NP_033005.1	P29352
NP_033076.2	P35546
NP_033088.2	O08899
NP_033724.2	P00520
NP_033817.1	P28352
NP_033973.2	P09793
NP_034193.2	O88485
NP_034364.1	P01101
NP_034566.1	P27661
NP_034610.1	P07901
NP_034681.2	O54824
NP_034722.1	P15066
NP_034819.1	O54957
NP_034833.2	P27782
NP_034996.2	P10085
NP_035162.1	P09103
NP_035276.2	P37238
NP_035649.1	P18828
NP_035791.1	P11344
NP_035837.1	P29788
NP_036442.3	O95239
NP_036565.2	O75533
NP_036636.1	P06685
NP_037013.2	P08721
NP_037101.2	P35570
NP_037257.2	P15389
NP_037379.1	O43464
NP_037434.2	O00418
NP_038658.2	O08852
NP_040310.1	P06463
NP_040312.1	P06789
NP_040521.1	P03276
NP_040983.1	P03508
NP_041325.1	P03126
NP_054706.1	P18206
NP_055566.3	O43312
NP_055610.1	O60315
NP_055779.2	O95208
NP_055901.2	O94850
NP_056739.1	P03116
NP_056837.1	P18095
NP_056887.1	P03322
NP_057254.1	O43763
NP_057853.1	P04608
NP_057857.2	P04601
NP_058519.3	P10636
NP_058707.2	P23385
NP_058742.2	P37091
NP_061496.2	O43497
NP_062161.1	P08592
NP_062888.1	P03317
NP_065390.1	P25963
NP_068635.1	P14659
NP_073167.1	P19103
NP_073728.1	O15055
NP_077077.1	O88881
NP_109587.1	P36507
NP_112420.1	P09651
NP_113796.1	P19490
NP_114172.1	P14635
NP_114368.1	P26599
NP_116692.1	P07270
NP_150241.2	P29590
NP_172670.2	O65373
NP_182090.1	O64645
NP_182274.1	O22259
NP_446006.1	O55012
NP_476769.1	P20659
NP_476850.1	P28166
NP_490595.1	O60583
NP_506575.2	O61667
NP_508008.4	G5EGD2
NP_523700.2	P02836
NP_524087.3	P29747
NP_550433.1	P13051
NP_593245.1	P36604
NP_595419.1	P30261
NP_612482.2	P08047
NP_620195.1	P19814
NP_647593.1	O00499
NP_722922.1	P23803
NP_733465.1	P23226
NP_776612.1	P31096
NP_776668.1	P17870
NP_776777.1	P08169
NP_777009.1	P00517
NP_786973.1	P11456
NP_788824.1	P30205
NP_796008.2	B2RUJ5
NP_892113.4	P29353
NP_937983.2	O14746
NP_955367.1	O15117
NP_990275.2	O42400
NP_997647.2	P02751
NP_999326.1	O77638
XP_006229721.1	P31424
XP_017456328.1	P06536
XP_038960072.1	P21575
XP_047296993.1	O43426
YP_001039958.1	A3EX99
YP_009137074.1	P08393
YP_009137104.1	P04296
YP_009137121.1	P10230
YP_009137123.1	P06492
YP_009137209.1	P28282
YP_052960.1	P08363
YP_401644.1	P12978
YP_401671.1	P03204
YP_401677.1	P03211
NP_000012.1	P49768
NP_000048.1	P54132
NP_000050.3	P51587
NP_000238.1	Q29983
NP_000251.3	Q13402
NP_000288.1	Q13563
NP_000295.1	Q01453
NP_000305.3	P60484
NP_000327.2	P51168
NP_000341.2	P78363
NP_000343.2	Q09428
NP_000444.1	Q92911
NP_000516.3	Q14654
NP_000539.2	P49815
NP_000555.2	Q01344
NP_000630.1	P48023
NP_000936.1	P63098
NP_001001655.1	Q6NS38
NP_001004398.2	P50478
NP_001005373.1	Q6UWE0
NP_001005781.1	P63165
NP_001010972.1	Q15942
NP_001011627.1	Q86MV4
NP_001013775.2	Q5HZI5
NP_001014740.1	P43125
NP_001017451.1	Q5RKH7
NP_001025031.2	Q4G163
NP_001025032.1	P60321
NP_001026854.1	Q16629
NP_001026973.1	Q6P1M3
NP_001028706.1	Q8C351
NP_001032418.1	Q07343
NP_001034891.1	P60953
NP_001035214.1	Q6ZP29
NP_001035280.1	Q1M168
NP_001036318.2	Q24212
NP_001037.1	P55011
NP_001073143.1	P43268
NP_001073587.1	Q925J9
NP_001075877.1	Q28735
NP_001077005.1	Q5JSP0
NP_001081784.1	P47817
NP_001082324.1	Q8AY27
NP_001084186.1	Q8QGV2
NP_001084420.1	Q6XV80
NP_001091672.1	Q14526
NP_001091894.1	Q12959
NP_001091995.1	Q8WWK9
NP_001092093.2	Q5VST9
NP_001108446.1	Q2TAL5
NP_001116153.1	P78314
NP_001116365.1	P39688
NP_001119580.2	P55017
NP_001122312.1	Q01668
NP_001123947.1	Q7Z6K1
NP_001124497.1	P50542
NP_001128648.1	Q8NHV4
NP_001129663.1	Q63ZY3
NP_001135865.1	Q14511
NP_001139646.1	P46061
NP_001148.1	P50995
NP_001154.2	Q02410
NP_001155096.1	P49919
NP_001157037.1	P54830
NP_001157834.1	Q8BT07
NP_001159409.1	Q14849
NP_001161458.1	Q0VD86
NP_001164047.1	P60192
NP_001171445.1	Q62406
NP_001179.1	Q16611
NP_001180279.1	Q06413
NP_001188.1	Q13323
NP_001188386.1	Q8IWB6
NP_001191972.1	Q62315
NP_001217.2	P55212
NP_001218.1	P55210
NP_001220.2	P55211
NP_001234611.1	Q5I6E9
NP_001239383.1	Q80VP1
NP_001242996.1	Q86UR1
NP_001246.2	Q12834
NP_001258289.1	Q91YI4
NP_001258957.1	P98203
NP_001260144.1	Q960N3
NP_001262010.1	Q24106
NP_001264242.1	Q68DA7
NP_001264993.1	Q13255
NP_001267508.1	Q6ELF8
NP_001268668.1	Q2V2M9
NP_001269074.1	Q8N0W4
NP_001273675.2	Q6PGQ7
NP_001275668.1	Q05193
NP_001286572.1	Q7K4Z4
NP_001295302.1	Q14318
NP_001303256.1	Q05655
NP_001304941.1	Q13426
NP_001305117.1	P61978
NP_001307604.2	Q12982
NP_001318150.1	Q91ZE9
NP_001334.2	P98082
NP_001335203.1	Q18PE0
NP_001337743.1	Q13322
NP_001338456.1	Q7Z333
NP_001340617.1	Q13009
NP_001344699.1	Q61548
NP_001349516.1	Q8CHU3
NP_001355002.1	Q2KHR2
NP_001355978.1	P97318
NP_001356441.1	P40763
NP_001357026.1	Q15326
NP_001357484.1	P50549
NP_001358152.1	Q5SYB0
NP_001366382.1	Q8R5H6
NP_001372804.1	Q5T4F4
NP_001375421.1	P42858
NP_001380604.1	Q63633
NP_001380915.1	Q13029
NP_001390118.1	Q6R3M4
NP_001552.2	Q07011
NP_001626.1	P49418
NP_001633.1	Q06481
NP_001772.1	Q07108
NP_001795.2	P47902
NP_001796.2	Q15744
NP_001933.2	Q02413
NP_001937.2	Q16828
NP_001972.1	P42566
NP_001978.1	P41212
NP_002177.2	Q01113
NP_002488.1	P51955
NP_002490.2	Q92859
NP_002495.2	Q12986
NP_002735.3	Q05513
NP_002746.1	Q02750
NP_002813.3	Q12792
NP_002866.2	Q06609
NP_002944.2	Q15418
NP_003001.1	P45985
NP_003147.2	Q13586
NP_003195.1	Q14494
NP_003202.3	Q13569
NP_003291.2	Q13114
NP_003361.1	P50552
NP_003891.1	Q13501
NP_003893.2	Q96AE4
NP_004032.2	P49407
NP_004055.1	P46527
NP_004082.1	Q14209
NP_004086.1	Q13541
NP_004094.3	Q14289
NP_004136.2	Q13459
NP_004313.1	Q92934
NP_004341.1	Q13761
NP_004357.3	P51788
NP_004438.3	Q12929
NP_004545.2	Q14934
NP_004621.2	Q15637
NP_004635.2	Q13367
NP_004765.2	Q15648
NP_004984.2	P54252
NP_005003.2	Q01973
NP_005021.2	P53350
NP_005144.2	Q14694
NP_005158.5	Q5JR12
NP_005163.1	Q92858
NP_005186.2	P49716
NP_005206.2	P43146
NP_005216.1	Q01094
NP_005221.2	P41970
NP_005222.2	Q14247
NP_005461.2	Q8IZP0
NP_005497.1	Q14108
NP_005513.2	P49639
NP_005517.1	Q00613
NP_005556.1	Q13094
NP_005624.2	Q07889
NP_005646.1	Q13118
NP_005651.1	P78381
NP_005822.1	Q13137
NP_005911.1	Q14814
NP_005929.2	P98177
NP_005953.4	P50539
NP_006155.2	Q16236
NP_006181.1	Q13416
NP_006232.1	P41236
NP_006247.1	Q16513
NP_006258.3	P49792
NP_006266.2	Q13247
NP_006273.1	Q13043
NP_006293.2	Q58F09
NP_006378.3	Q8IWX8
NP_006445.1	Q14582
NP_006518.1	Q14493
NP_006550.1	Q07666
NP_006728.2	P43630
NP_006818.3	P49755
NP_008855.1	Q07955
NP_008868.3	P61956
NP_009097.2	Q13492
NP_009403.1	P39706
NP_010160.1	Q07549
NP_010281.1	Q12158
NP_010398.3	P40316
NP_010415.1	Q03898
NP_010612.2	Q06680
NP_010768.1	Q03373
NP_010959.2	P40028
NP_011039.1	P39969
NP_011076.1	P40091
NP_011425.1	P53150
NP_011429.3	P40957
NP_011466.1	P39936
NP_011512.1	P53197
NP_011594.3	P53250
NP_011704.3	P41695
NP_011856.1	Q03497
NP_011940.1	P38713
NP_011986.1	P38826
NP_011987.1	P38827
NP_012485.1	P47047
NP_013174.1	Q08003
NP_013180.1	P38634
NP_013374.1	Q06156
NP_013534.3	Q00416
NP_013746.1	Q05080
NP_014042.1	P41818
NP_014100.2	P48561
NP_014128.2	P41832
NP_014238.3	P53894
NP_014526.1	P53632
NP_014549.1	Q12010
NP_014755.1	Q12453
NP_014770.1	P39083
NP_014824.1	Q12446
NP_015056.1	Q08981
NP_015082.1	Q12280
NP_015276.1	Q03063
NP_031548.1	Q61337
NP_031570.2	P70444
NP_031659.2	Q61457
NP_031969.1	P42567
NP_032063.2	P47930
NP_032840.1	P52946
NP_032886.2	Q02956
NP_032997.3	Q91YR1
NP_033257.2	Q62245
NP_033998.2	P55284
NP_034221.3	P51141
NP_034283.1	Q61526
NP_034360.2	Q05860
NP_034408.1	P70338
NP_034826.2	Q60787
NP_035029.2	Q60591
NP_035032.1	Q60795
NP_035242.1	Q61183
NP_035718.2	Q62318
NP_035785.1	P99024
NP_036071.3	Q6NS57
NP_036364.2	Q6NZI2
NP_036423.4	Q14674
NP_036457.1	Q15691
NP_037079.1	P70531
NP_037163.1	Q01827
NP_038599.1	Q61097
NP_040531.1	P68978
NP_054369.1	Q02843
NP_055204.4	Q8IZL8
NP_055309.2	Q8NDV7
NP_055565.3	Q15398
NP_055596.3	Q8TDY2
NP_055606.1	Q14680
NP_055680.3	Q15021
NP_055877.3	Q5VV67
NP_055883.2	Q86TG7
NP_055965.1	Q14699
NP_055970.1	Q92615
NP_055995.4	Q8WXH0
NP_056076.1	P42695
NP_056175.3	P42285
NP_057356.1	Q14106
NP_057424.3	Q8TEU7
NP_057615.3	P57682
NP_057953.1	Q02548
NP_058037.2	P97764
NP_058431.2	P46108
NP_058943.2	Q62968
NP_059523.2	P54274
NP_060106.2	Q8TD43
NP_060354.4	Q96BK5
NP_061871.1	Q969U6
NP_062518.2	Q8C2B3
NP_063972.1	Q792Q4
NP_065797.2	Q7Z434
NP_065815.1	Q8WXD9
NP_065921.2	Q7Z6J0
NP_065998.3	Q6P9B6
NP_066246.1	Q05320
NP_066247.1	P60170
NP_068684.1	Q61187
NP_068772.2	Q08050
NP_068810.3	Q04206
NP_075235.3	P97836
NP_077719.2	Q04721
NP_078875.4	Q6PJF5
NP_078951.2	Q86YC2
NP_079885.2	Q8CF89
NP_082292.1	Q80Z64
NP_082537.1	Q3TBT3
NP_082810.1	Q91VZ6
NP_085139.2	Q7L9B9
NP_112323.2	Q62838
NP_112494.3	Q8NI77
NP_113563.2	Q7M6U3
NP_113584.3	Q7Z6Z7
NP_113831.1	Q01986
NP_114191.1	P67999
NP_115519.2	Q5FWF4
NP_116606.1	P43555
NP_149053.1	Q86WG3
NP_178311.1	Q84WG0
NP_178313.1	P46032
NP_179835.1	P42752
NP_181378.2	Q5XPJ9
NP_195142.1	P42753
NP_277020.2	Q62627
NP_443111.4	Q71RC2
NP_445775.2	Q5XIF5
NP_445968.3	Q62881
NP_446269.3	Q07310
NP_446309.1	Q62622
NP_446311.1	Q62634
NP_476966.1	Q24120
NP_477075.2	Q24246
NP_477501.1	Q24044
NP_507869.1	Q23023
NP_510687.2	Q17740
NP_524137.2	Q24570
NP_524138.1	Q24475
NP_524504.2	Q01070
NP_524509.2	Q01068
NP_542179.1	Q8WWW8
NP_567258.1	Q94KI8
NP_569055.1	Q8WXE1
NP_571480.2	Q90ZL7
NP_579821.1	Q3MUI1
NP_587759.1	P78813
NP_592869.1	Q10059
NP_592974.1	Q09690
NP_593081.2	Q09815
NP_598410.2	Q924N4
NP_612409.1	Q5C9Z4
NP_619617.2	Q6P7W2
NP_620178.1	P50411
NP_620221.2	Q64350
NP_620570.2	Q8VHY0
NP_624311.1	Q8WUA2
NP_644814.1	Q8NHY3
NP_659449.3	Q8ND76
NP_666041.1	Q8R0H9
NP_666318.2	Q8BWC0
NP_666498.2	Q8VIM5
NP_689637.3	Q5JTC6
NP_689775.2	Q69YH5
NP_694629.2	Q8K4J6
NP_700356.2	Q6UXM1
NP_722520.2	Q8IX07
NP_724578.1	Q8T9B6
NP_725394.1	Q27934
NP_726596.1	Q8SY33
NP_732533.1	Q02308
NP_741894.1	P50605
NP_741991.3	Q8CFN2
NP_766636.2	Q8BMI3
NP_775114.1	Q13469
NP_775168.2	P97839
NP_775748.2	Q495M9
NP_777211.1	P51177
NP_778172.1	Q7TQF7
NP_783569.1	Q80UE6
NP_835468.1	Q86YW5
NP_849265.2	Q8BFW9
NP_918953.2	P60322
NP_938023.1	Q86WV6
NP_940988.2	Q6VVB1
NP_942133.1	Q13085
NP_955631.1	Q8WY41
NP_982261.2	Q6ULP2
NP_997144.1	Q6VV64
NP_997413.2	Q91XL9
NP_999268.1	Q29092
NP_999622.2	P62024
NP_999784.1	Q26658
NP_999933.1	Q6P7X6
WP_010947445.1	Q5ZUS4
XP_006531203.1	Q80XL8
XP_024835394.1	P63009
XP_047291553.1	Q12830
XP_713082.2	Q59U10
XP_718971.1	Q5ABG1
YP_009825055.1	P59596
YP_009825057.1	P59635
YP_232933.1	Q80HX6
YP_232945.1	P68446
YP_233041.1	P68619
NP_000751.1	Q99062
NP_001008695.1	Q9BT49
NP_001013858.1	Q9Y6D9
NP_001028721.1	Q9NWV8
NP_001028733.1	Q96QT6
NP_001032848.1	Q9ERE3
NP_001033046.1	Q9Z188
NP_001035232.1	Q99250
NP_001035757.1	Q9ULV5
NP_001041666.1	Q96T88
NP_001070967.1	Q9WTU3
NP_001073349.1	Q9BZL6
NP_001081983.1	Q9IA80
NP_001092744.1	Q9BSI4
NP_001119575.1	Q9H0H5
NP_001123544.1	Q9Y6I3
NP_001127907.1	Q9H095
NP_001135441.1	Q9UER7
NP_001137474.1	Q9NRF8
NP_001138537.1	Q9C0I3
NP_001155973.1	Q9UPQ9
NP_001161750.1	Q9GZV5
NP_001164100.1	Q9HCK8
NP_001164236.1	Q96JN0
NP_001167630.1	Q9H788
NP_001185625.1	Q9BRQ8
NP_001243635.1	Q9UM13
NP_001246966.1	Q9VIC7
NP_001267539.1	Q9N2H0
NP_001268222.1	Q9Y2X9
NP_001285687.1	Q9VMA3
NP_001289307.1	Q9H1K0
NP_001309182.1	Q9Y4B4
NP_001316371.1	Q96I34
NP_001340274.1	Q9UPS6
NP_001340717.1	Q99767
NP_001341661.1	Q96IZ0
NP_001352340.1	Q9ULH7
NP_001354490.1	Q96N67
NP_001357331.1	Q9UIG0
NP_001365931.1	Q9Y5P4
NP_001366242.1	Q9Y5M8
NP_001374487.1	Q9Y5R5
NP_001378907.1	Q9P0K1
NP_001378912.1	Q96PN7
NP_001385210.1	Q9BVW5
NP_002885.1	Q99708
NP_002950.3	Q99523
NP_003713.3	Q9H3D4
NP_003941.2	Q96RI0
NP_004186.1	Q9Y5U5
NP_004548.3	Q99466
NP_004747.1	Q9Y6R0
NP_005107.4	Q9UGH3
NP_005447.1	Q9UQF2
NP_005793.2	Q9NS56
NP_005857.1	Q99720
NP_005870.2	Q9BWF2
NP_006018.4	Q9UQ84
NP_006158.2	Q99801
NP_006182.2	Q9UQ80
NP_006493.1	Q9Y253
NP_008921.1	Q9Y6W5
NP_009126.2	Q9UNA4
NP_009138.1	Q9Y6W6
NP_014969.3	Q99332
NP_034251.2	Q9Z2B5
NP_035182.2	Q9WU78
NP_036178.1	Q9QUG2
NP_036228.1	Q9UKG1
NP_036270.1	Q9NY61
NP_036309.1	Q9UKT4
NP_036566.1	Q9NRA2
NP_037393.1	Q9UBK2
NP_038761.1	Q9QWF0
NP_038942.1	Q9QY31
NP_051860.1	Q9Q8F7
NP_055150.1	Q9Y6B2
NP_055180.1	Q9UJY1
NP_055227.1	Q9HB71
NP_055417.1	Q99570
NP_055752.1	Q9Y2H2
NP_055761.2	Q9UBP0
NP_055859.1	Q9UJY4
NP_056131.2	Q96KQ4
NP_056383.1	Q96T49
NP_057079.2	Q9Y2Y9
NP_057396.1	Q9Y2W2
NP_059108.1	Q9NPG1
NP_059980.2	Q9BVK6
NP_060023.1	Q9ULG1
NP_060292.3	Q9H9L4
NP_060575.1	Q9NVV9
NP_060895.1	Q9BTU6
NP_060956.1	Q9BY41
NP_061732.1	Q9UN73
NP_061877.1	Q9P2G1
NP_062692.1	Q9WUL7
NP_062801.1	Q9WV60
NP_062828.3	Q9NR22
NP_064140.1	Q9DWF6
NP_064706.1	Q99583
NP_065192.1	Q9ULR5
NP_065394.1	Q9GZU1
NP_065788.1	Q9ULH4
NP_065894.2	Q9BY12
NP_067004.3	Q9NQ25
NP_067426.1	Q9JM54
NP_067488.1	Q9JJD0
NP_068813.1	Q9Y5Y6
NP_071407.4	Q9H251
NP_071895.3	Q96CC6
NP_075538.1	Q9EPL2
NP_078948.3	Q9H5L6
NP_079094.1	Q9GZZ9
NP_079216.4	Q9H7D0
NP_079452.3	Q9Y2I6
NP_079471.1	Q96RU8
NP_079513.1	Q9BQB4
NP_080076.1	Q9DCL8
NP_085153.1	Q9C0E8
NP_110436.1	Q9H175
NP_112026.1	Q9IH63
NP_112190.2	Q9H211
NP_112483.1	Q9Y4W2
NP_114407.3	Q9H040
NP_114414.2	Q9BY44
NP_115983.3	Q96T92
NP_116586.1	Q9P2E7
NP_150648.2	Q96RL7
NP_178286.1	Q9ZUA5
NP_203754.2	Q9C0C2
NP_498147.1	Q9N537
NP_501980.2	Q9U389
NP_524139.1	Q9VVP8
NP_524221.1	Q9VN10
NP_524250.3	Q9VI63
NP_524273.1	Q9VHV8
NP_542164.2	Q9BXW6
NP_542399.1	Q96FF9
NP_565722.1	Q9SID1
NP_566590.1	Q9LVI4
NP_594056.1	Q9HDZ6
NP_595383.2	Q9P795
NP_610415.1	Q9XZ31
NP_612410.1	Q96EY5
NP_619525.1	Q9NZ52
NP_651737.1	Q9VAF4
NP_653234.2	Q96L42
NP_665852.1	Q9EQJ0
NP_699199.2	Q96KN9
NP_724254.1	Q9U1K1
NP_858045.1	Q9Y6Q9
NP_984654.1	Q9HFW3
XP_006242112.1	Q9QY17
XP_006244059.1	Q9QZA2
XP_038961894.1	Q9WUD9
