Accession	UniProt
NP_000248.2	P12883
NP_000333.1	P02730
NP_000336.1	P37840
NP_000537.3	P04637
NP_000549.1	P69905
NP_000594.2	P29474
NP_000928.1	P24928
NP_001003934.1	Q9ES97
NP_001004062.1	Q68ED7
NP_001004144.1	Q68FF6
NP_001005511.2	Q5XJV6
NP_001006665.1	Q9Z2H5
NP_001017926.1	Q9UKY1
NP_001018119.1	O00625
NP_001020419.1	P33316
NP_001025021.1	Q6RHR9
NP_001025464.1	Q3UUD2
NP_001030329.2	P08733
NP_001032844.2	Q8BKX1
NP_001032935.2	Q8C5L3
NP_001032995.1	Q2VWQ2
NP_001034477.1	Q8CBE3
NP_001034758.1	Q8BXL9
NP_001035147.1	P10451
NP_001035490.2	Q4JK59
NP_001062.1	P04818
NP_001071643.1	Q99808
NP_001074399.1	P0C7T6
NP_001074401.2	Q3UCQ1
NP_001074497.1	G3X9J0
NP_001074566.1	B1AS29
NP_001074681.1	P81122
NP_001074725.1	Q6ZPY7
NP_001077424.1	Q91VB8
NP_001091.1	P68133
NP_001094061.1	P0C090
NP_001103096.1	Q14AX6
NP_001103160.1	Q6ZPK0
NP_001104485.1	Q64332
NP_001104490.1	O00267
NP_001106675.1	P13595
NP_001106817.1	Q8CHY6
NP_001107612.1	Q9EPQ8
NP_001107783.1	Q499E5
NP_001107806.1	Q8BSK8
NP_001116424.1	Q02780
NP_001120680.1	Q6N021
NP_001123617.1	P46937
NP_001123951.1	P81117
NP_001129068.1	Q4KLH5
NP_001132979.1	D3ZN95
NP_001136437.1	B1AXV0
NP_001137307.1	Q6P4R8
NP_001137357.1	O14974
NP_001137485.1	A6NKT7
NP_001139391.1	Q8BYK6
NP_001139424.1	Q8BFW7
NP_001153420.2	Q920R0
NP_001153488.1	P62874
NP_001153723.1	Q99LI5
NP_001157012.1	Q9QXS1
NP_001157745.1	Q8IWI9
NP_001157935.1	O14715
NP_001157963.1	Q69ZX8
NP_001158056.1	Q80TZ3
NP_001159680.1	Q8N3V7
NP_001165776.1	P68403
NP_001170779.1	P05064
NP_001180588.1	Q9ET43
NP_001182555.1	P55197
NP_001182561.1	Q811P8
NP_001183953.1	Q5FWH2
NP_001185933.1	Q9QYE6
NP_001185952.1	P97819
NP_001186233.1	P54254
NP_001190176.1	Q15910
NP_001192270.1	Q8BSS9
NP_001193954.1	P09086
NP_001229325.1	Q69ZK6
NP_001239383.1	Q80VP1
NP_001239591.1	Q9WV69
NP_001240814.1	Q9QXJ1
NP_001268222.1	Q9Y2X9
NP_001268425.1	P35232
NP_001273128.1	Q9UPN6
NP_001276376.1	Q9QWZ1
NP_001276590.1	Q5DTW7
NP_001276711.1	P23927
NP_001276736.1	P02511
NP_001277242.1	Q3UH66
NP_001277398.1	Q6PIC6
NP_001277556.1	Q64436
NP_001277689.1	Q5SVR0
NP_001277997.1	P08775
NP_001288233.1	O88904
NP_001289010.1	Q6PFD5
NP_001289142.1	P97450
NP_001289273.1	P47708
NP_001289564.1	Q2M3X8
NP_001297563.1	P20357
NP_001303639.1	Q3UNH4
NP_001306064.1	O95793
NP_001306590.1	Q8WUH6
NP_001309052.1	Q3MIT2
NP_001310303.1	Q16566
NP_001318036.1	P31750
NP_001333374.1	Q09666
NP_001333733.1	Q3UU96
NP_001334242.1	Q8BG87
NP_001334274.1	P58462
NP_001339702.1	P14923
NP_001342130.1	Q3V0G7
NP_001342366.1	P11277
NP_001343529.1	Q62311
NP_001344483.1	Q8BIH0
NP_001344699.1	Q61548
NP_001346463.1	Q99K90
NP_001347586.1	P99027
NP_001348138.1	P06537
NP_001348973.1	Q922Y1
NP_001352055.1	P52948
NP_001356379.1	Q6RFH5
NP_001366220.1	O60885
NP_001366584.1	Q8VHR5
NP_001374620.1	Q96HA1
NP_001389985.1	Q62417
NP_001390241.1	P11798
NP_001390316.1	Q8VHG2
NP_001394332.1	Q8C0T5
NP_001395138.1	Q5SFM8
NP_001547.1	O14920
NP_001955.1	P18146
NP_002090.4	P02724
NP_002169.1	P24592
NP_002304.3	O14639
NP_002645.3	P14618
NP_003117.2	P02549
NP_003176.2	O00268
NP_003233.4	P37173
NP_003371.2	P08670
NP_003449.2	Q9UPA5
NP_003835.3	O00220
NP_004055.1	P46527
NP_004427.1	O43768
NP_004823.1	P78417
NP_005045.2	Q99666
NP_005162.1	P18846
NP_005325.2	P51610
NP_005976.2	O95863
NP_006015.4	Q86VP1
NP_006107.1	Q15750
NP_006258.3	P49792
NP_006302.2	O75376
NP_006319.1	Q96PK6
NP_006507.2	P11166
NP_006653.2	Q6ZRS2
NP_008961.1	O94811
NP_009176.2	Q8WWM7
NP_031479.1	O08709
NP_031493.2	Q03157
NP_031593.2	O88737
NP_031607.2	P54285
NP_031621.3	P28652
NP_031861.2	O08788
NP_031924.1	P70245
NP_031954.2	Q05512
NP_032109.1	P06837
NP_032110.1	P16858
NP_032410.2	P49442
NP_032643.2	P08249
NP_032870.2	O70161
NP_032930.1	O70343
NP_032976.1	P62196
NP_033053.2	P70392
NP_033259.2	P53783
NP_033315.2	O54988
NP_033348.2	Q64336
NP_033473.1	P68368
NP_033477.2	Q9D6F9
NP_033495.2	O70405
NP_033556.2	Q61687
NP_033738.1	P68033
NP_033740.2	P63268
NP_034013.1	P28033
NP_034085.2	O08553
NP_034156.2	Q9QWY8
NP_034221.3	P51141
NP_034563.2	Q9QZR5
NP_034610.1	P07901
NP_034787.2	A2A884
NP_034798.2	Q3TTY5
NP_034907.1	P04370
NP_034978.3	P06876
NP_035034.2	P19246
NP_035040.1	P08551
NP_035315.1	O09061
NP_035560.1	Q9Z0F7
NP_035566.2	O88307
NP_035783.1	P68369
NP_035784.1	P05213
NP_035831.2	P20152
NP_035908.1	Q9WUM3
NP_035937.2	Q91XM9
NP_036027.1	Q9QXV8
NP_036097.1	Q9Z2U1
NP_036098.1	Q9QUM9
NP_036099.1	Q9Z2U0
NP_036516.1	Q9UKD1
NP_036787.2	Q01714
NP_037067.1	P23928
NP_038529.1	P24622
NP_038708.3	O88935
NP_038744.1	P97855
NP_038762.1	Q9WV27
NP_038909.3	Q9QY01
NP_055449.1	P49593
NP_055915.2	Q7Z3K3
NP_056018.2	Q5VT52
NP_056617.2	Q9R0Z9
NP_057417.3	Q9UQ35
NP_057904.1	Q9WV34
NP_058054.2	P56480
NP_058573.3	Q8BT14
NP_058704.1	P04797
NP_058867.2	P09216
NP_060710.3	Q96J84
NP_061152.3	Q8IZD2
NP_062085.1	P68136
NP_062689.2	Q80UY2
NP_062739.2	Q922J3
NP_062811.1	Q9JI46
NP_063922.2	Q8C2Q3
NP_065209.2	P16157
NP_066272.1	O00151
NP_066406.1	P33778
NP_066924.1	O95832
NP_066926.1	P63313
NP_068610.1	Q62600
NP_068810.3	Q04206
NP_071952.1	P09217
NP_073728.1	O15055
NP_075235.3	P97836
NP_075768.1	Q9ERD7
NP_075991.1	Q9JHC9
NP_076014.1	B2RQC6
NP_076205.1	Q9CWF2
NP_076945.2	Q9H467
NP_077185.1	Q9DCT8
NP_077772.2	Q8R4U7
NP_079100.2	Q6PJT7
NP_079627.3	Q91VN4
NP_079634.2	Q9DC69
NP_079683.2	Q9CZ13
NP_079885.2	Q8CF89
NP_080543.2	Q9CR95
NP_080637.1	Q68FH0
NP_080749.2	Q922F4
NP_081148.1	Q91VX2
NP_081269.1	Q9CWS0
NP_081409.1	Q7TQ95
NP_081774.3	Q6P4S6
NP_082075.2	Q5SUE8
NP_082213.2	Q6P9K8
NP_084163.2	Q9CX30
NP_109587.1	P36507
NP_112148.2	Q99NH0
NP_112151.2	Q9EPR5
NP_113876.2	Q63544
NP_114368.1	P26599
NP_116165.1	Q15652
NP_201585.1	Q96KX2
NP_277059.1	Q924S8
NP_444434.2	Q99MI1
NP_446404.1	P37199
NP_573481.1	Q9ERQ3
NP_598477.2	Q7TN29
NP_598552.2	Q6NXJ0
NP_604448.1	O08984
NP_620305.3	P18583
NP_631883.2	Q8CGY8
NP_653105.3	Q8BHL3
NP_659047.2	Q8BJM5
NP_659141.1	Q91W39
NP_659149.1	Q8VDN2
NP_659188.1	Q91WJ0
NP_665835.1	Q8K3X4
NP_666228.1	P68372
NP_666306.2	Q7M6Y3
NP_683761.2	S4R1M9
NP_689971.4	Q7Z739
NP_690000.3	Q8N5C8
NP_690031.2	Q5QNQ6
NP_700470.2	Q8CHP6
NP_705816.2	P59759
NP_758484.2	Q8BMB0
NP_765994.2	Q6P9N8
NP_766027.2	P59644
NP_766173.1	Q6A0A2
NP_766271.2	Q8BZH4
NP_766470.2	Q6VNB8
NP_766499.2	Q571I4
NP_766511.1	Q8BZB3
NP_766540.2	Q8BUV3
NP_775613.2	Q8CH77
NP_776110.3	Q8BU25
NP_776715.1	P02510
NP_777275.2	Q3TN34
NP_780380.2	Q811L6
NP_780408.1	Q8K0U4
NP_780706.1	Q8BFZ3
NP_780730.2	Q6PFX7
NP_795712.2	Q9JM52
NP_808332.3	Q7TME0
NP_808346.3	Q8BL65
NP_808419.1	Q80YA9
NP_848492.1	Q6PIE5
NP_849211.3	Q9QX47
NP_859009.2	Q7TPB0
NP_872394.2	Q7Z3J3
NP_878259.1	Q7TQD2
NP_932131.2	Q68FF7
NP_932138.1	Q8CFE4
NP_932766.1	P29972
NP_937884.2	Q04637
NP_938036.2	Q0VGY8
NP_938046.2	Q6ZQH8
NP_997554.2	Q99PP2
NP_998824.1	P42227
XP_006520113.1	Q0KL02
XP_006523284.2	E9Q4N7
XP_006539132.1	Q62504
XP_006711301.1	Q9Y520
XP_011239133.1	Q9WU42
XP_036009857.1	Q6ZQ08
XP_036012273.1	P10637
XP_047291553.1	Q12830
