Accession	UniProt
NP_000017.1	P30566
NP_000117.1	P13804
NP_000163.2	P11488
NP_000169.1	P48637
NP_000225.1	P18858
NP_000242.1	P43246
NP_000245.2	Q99707
NP_000261.2	P00491
NP_000282.1	P00558
NP_000405.1	P51659
NP_000413.1	Q04695
NP_000427.1	P55809
NP_000467.1	P00568
NP_000552.2	P09488
NP_000627.2	P04179
NP_000662.3	P11766
NP_000745.1	P21964
NP_000929.1	P30876
NP_000935.1	Q08209
NP_000958.1	P39023
NP_000960.2	P46777
NP_000961.2	Q02878
NP_000963.1	P62424
NP_000964.1	P62917
NP_000966.2	P62913
NP_000973.2	P46778
NP_000976.1	P18621
NP_000978.1	P61254
NP_000981.1	P46776
NP_000982.2	P46779
NP_000983.1	P47914
NP_000984.1	P62899
NP_000985.1	P62910
NP_000986.2	P49207
NP_000989.1	P61513
NP_000996.2	P23396
NP_001001.2	P62753
NP_001002.1	P62081
NP_001002800.1	Q9NTJ3
NP_001003.1	P62241
NP_001003962.1	P04632
NP_001005360.1	P50570
NP_001005781.1	P63165
NP_001006635.1	Q68EM7
NP_001007554.1	O75534
NP_001008.1	P62277
NP_001008491.1	Q15019
NP_001008938.1	Q14008
NP_001012339.2	Q5F1R6
NP_001014436.1	Q9UJU6
NP_001015.1	P63220
NP_001020423.1	P55327
NP_001027459.1	Q13404
NP_001030168.1	P50914
NP_001035526.1	Q9Y2Z4
NP_001035809.1	P61221
NP_001035879.1	Q8WXF1
NP_001035908.1	P20810
NP_001035994.1	Q13057
NP_001036015.1	O95347
NP_001036216.1	Q8N3U4
NP_001070675.1	O94979
NP_001070910.1	P07910
NP_001073027.1	Q1KMD3
NP_001075019.1	Q8NI27
NP_001087240.1	Q16881
NP_001087.2	P53396
NP_001092006.1	P45974
NP_001092755.1	P06454
NP_001106672.1	Q13765
NP_001123527.1	P29692
NP_001124146.1	O43852
NP_001124160.1	P26583
NP_001129064.1	P62979
NP_001129171.1	P63104
NP_001130046.1	O43813
NP_001132913.1	P51572
NP_001136402.1	Q9BZZ5
NP_001137233.1	P63241
NP_001137457.1	O75531
NP_001138791.1	Q14651
NP_001153239.1	Q9Y6E2
NP_001166176.1	P78344
NP_001166995.1	P10155
NP_001167630.1	Q9H788
NP_001171903.1	Q9UKS6
NP_001180286.1	P37198
NP_001185706.1	Q13617
NP_001189342.1	P14550
NP_001189360.1	Q06830
NP_001193469.1	P47756
NP_001193943.1	P50454
NP_001243206.1	Q9BZG1
NP_001243222.1	P05787
NP_001244289.1	Q01433
NP_001245366.1	P26639
NP_001252.1	P50750
NP_001258535.1	P80723
NP_001258714.1	Q13409
NP_001263218.1	P10644
NP_001264152.1	P37802
NP_001265580.1	P46060
NP_001269315.1	O75874
NP_001272996.1	Q9H0W9
NP_001275668.1	Q05193
NP_001276674.1	P04406
NP_001281074.1	P05455
NP_001289979.1	Q9UPY8
NP_001290553.1	P27635
NP_001291479.1	Q9NXG2
NP_001292070.1	Q9HBL8
NP_001302.1	P50238
NP_001306.1	Q16539
NP_001307524.1	P17844
NP_001310232.1	O14965
NP_001310245.1	P21980
NP_001311045.1	Q16222
NP_001316851.1	P62158
NP_001317178.1	P51991
NP_001335048.1	O95361
NP_001354.1	O60832
NP_001367.2	Q14204
NP_001370.1	P26358
NP_001406.1	P41091
NP_001407.1	P60842
NP_001435.1	Q01469
NP_001485.2	P50395
NP_001489.1	P48506
NP_001531.1	P04792
NP_001559.1	P60228
NP_001596.2	P49588
NP_001616.1	P54819
NP_001646.2	P48444
NP_001742.1	P49589
NP_001776.1	P32320
NP_001779.3	Q16181
NP_001814.2	P12277
NP_001866.2	P31327
NP_001896.2	P17812
NP_001914.3	Q16531
NP_001966.1	P09104
NP_001967.3	P13929
NP_001988.1	P62861
NP_002004.1	Q00688
NP_002130.2	P38159
NP_002145.3	P34932
NP_002152.2	P41252
NP_002256.2	Q14974
NP_002261.3	Q92973
NP_002296.1	P09382
NP_002435.1	P26038
NP_002477.1	Q09161
NP_002547.1	P22059
NP_002558.1	P30086
NP_002559.2	P11940
NP_002568.2	Q13177
NP_002583.1	P12004
NP_002613.2	O60925
NP_002678.2	Q9H307
NP_002705.2	Q96QC0
NP_002708.1	P63151
NP_002712.1	O00743
NP_002778.1	P25787
NP_002781.2	P28066
NP_002782.1	P60900
NP_002783.1	O14818
NP_002784.1	P20618
NP_002785.1	P49721
NP_002795.2	P17980
NP_002798.2	Q99460
NP_002804.2	O00233
NP_002825.3	Q06124
NP_002865.1	P54727
NP_002873.1	P43487
NP_002878.2	P54136
NP_002936.1	P27694
NP_002940.2	P52815
NP_002958.2	Q15424
NP_003012.1	O43765
NP_003013.1	O75368
NP_003066.2	Q8TAQ2
NP_003095.2	Q00796
NP_003115.1	P35270
NP_003125.3	P37108
NP_003240.1	P52888
NP_003267.1	P42166
NP_003277.1	P11387
NP_003283.2	P12270
NP_003286.1	P13693
NP_003304.1	Q13630
NP_003306.3	Q99615
NP_003335.1	P62256
NP_003339.1	P61088
NP_003361.1	P50552
NP_003463.1	P35659
NP_003468.2	O00330
NP_003482.1	P41227
NP_003583.2	Q13616
NP_003631.2	O95163
NP_003744.1	O15371
NP_003747.1	O15372
NP_003748.1	Q13347
NP_003810.1	Q13310
NP_003815.1	Q13158
NP_003861.1	P46940
NP_003896.1	Q13564
NP_003901.2	P41223
NP_003923.2	P50502
NP_003935.2	Q13228
NP_004025.1	P20073
NP_004068.2	O75390
NP_004085.1	P05198
NP_004102.1	P39748
NP_004118.3	Q13098
NP_004125.3	P38646
NP_004175.2	P23381
NP_004273.1	O95816
NP_004292.1	O96019
NP_004314.5	Q99933
NP_004334.1	P27797
NP_004359.1	Q99439
NP_004427.1	O43768
NP_004452.1	Q9Y285
NP_004478.3	Q14789
NP_004485.1	P51858
NP_004495.2	P52594
NP_004512.1	P33176
NP_004530.1	O43776
NP_004587.1	P09012
NP_004640.4	P30042
NP_004694.2	Q15276
NP_004719.2	Q9NR30
NP_004757.1	P35606
NP_004841.2	O75116
NP_004850.1	Q00610
NP_004872.2	Q53FA7
NP_004896.1	P30041
NP_004915.2	O43707
NP_004951.1	P35637
NP_005042.1	P47897
NP_005092.1	P05161
NP_005210.3	O60610
NP_005222.2	Q14247
NP_005312.1	P10412
NP_005317.2	Q16775
NP_005318.3	Q16836
NP_005338.1	P11021
NP_005372.2	P19338
NP_005397.1	Q13464
NP_005403.2	P34897
NP_005427.2	Q16204
NP_005434.4	O43252
NP_005491.1	Q9UBE0
NP_005498.1	P23528
NP_005508.1	P05204
NP_005557.1	P00338
NP_005564.1	P20700
NP_005601.1	Q09028
NP_005617.2	Q08170
NP_005691.2	Q9NY33
NP_005708.1	O15511
NP_005709.1	P59998
NP_005713.1	P61160
NP_005720.1	P30405
NP_005722.1	O15144
NP_005723.2	Q92878
NP_005727.1	P61163
NP_005733.1	Q15084
NP_005737.1	P43490
NP_005780.2	P61289
NP_005796.1	O00487
NP_005830.2	Q8IYB3
NP_005883.2	O95466
NP_005886.2	Q08378
NP_005902.1	P31153
NP_005905.2	P33991
NP_005907.3	P33993
NP_005917.2	P55081
NP_005944.1	P02795
NP_005947.3	P11586
NP_005993.1	P15374
NP_006026.3	Q9Y5S2
NP_006127.1	P47755
NP_006133.1	P31947
NP_006147.1	Q15843
NP_006256.1	O60216
NP_006258.3	P49792
NP_006286.1	P26640
NP_006297.2	Q14683
NP_006301.3	P55786
NP_006351.2	Q7L2H7
NP_006363.4	O60506
NP_006420.1	Q99832
NP_006422.1	P78371
NP_006432.1	P49914
NP_006442.2	Q9H074
NP_006448.4	Q96HC4
NP_006494.1	P43686
NP_006504.2	P49591
NP_006550.1	Q07666
NP_006576.2	P50990
NP_006612.2	O43865
NP_006614.2	O43175
NP_006635.2	Q92598
NP_006699.2	Q04760
NP_006712.2	P55263
NP_006746.1	P37837
NP_006793.1	Q12874
NP_006800.2	Q15785
NP_006810.1	P31948
NP_006827.1	Q92616
NP_008826.1	P50135
NP_008960.2	Q93045
NP_008971.2	Q9BUJ2
NP_009027.1	P09496
NP_009028.1	P09497
NP_009120.1	Q9UG63
NP_009140.1	P42766
NP_009176.2	Q8WWM7
NP_009191.1	O95372
NP_009201.2	O95302
NP_031398.2	Q86XP3
NP_036228.1	Q9UKG1
NP_036252.1	Q9Y5K6
NP_036350.2	Q12906
NP_036442.3	O95239
NP_036457.1	Q15691
NP_036462.2	Q8WYB5
NP_036465.2	Q99417
NP_036466.2	Q9HD67
NP_036555.1	P40429
NP_036558.3	Q15393
NP_036601.2	O94906
NP_037368.1	Q9UBB4
NP_039234.1	Q9Y696
NP_054706.1	P18206
NP_054781.1	Q9ULX3
NP_054895.1	Q9NPD8
NP_055205.2	Q7KZF4
NP_055227.1	Q9HB71
NP_055454.1	Q6PGP7
NP_055521.1	Q15020
NP_055627.2	Q5SW79
NP_055637.2	O94855
NP_055644.2	Q7L014
NP_055847.1	Q9NTI5
NP_055982.2	Q6NYC1
NP_055984.1	Q15050
NP_056229.2	Q9Y3U8
NP_056280.2	Q8TEQ6
NP_056513.2	Q92917
NP_056991.2	P28838
NP_057017.1	Q9Y2S6
NP_057103.2	Q9Y383
NP_057123.1	Q9Y224
NP_057141.1	P61923
NP_057225.2	Q9Y6G9
NP_057227.2	Q9UNZ2
NP_057367.1	Q9Y3D8
NP_057475.2	Q9Y3C1
NP_057490.2	Q9Y3C8
NP_059431.1	Q99418
NP_059830.1	O75083
NP_060018.1	Q9UKY7
NP_060298.2	Q9H0A8
NP_060357.1	Q9NWV4
NP_060366.1	Q9NWU2
NP_060676.2	Q96QK1
NP_060705.2	Q96KP4
NP_060713.1	Q9NVA2
NP_060830.2	Q9NUQ3
NP_060918.2	Q86VP6
NP_061832.2	Q96EP5
NP_061852.3	Q9H4A3
NP_061980.1	Q969H8
NP_062538.5	Q5VTR2
NP_064502.9	Q9P2J5
NP_064522.3	Q4V328
NP_064587.1	Q9NQR4
NP_064617.2	Q969U7
NP_065090.1	Q8WW12
NP_065132.1	Q9HD26
NP_065761.1	Q8N1G4
NP_065916.2	Q9H2U1
NP_065937.1	Q96RU2
NP_067062.1	P49756
NP_068758.3	Q96AY3
NP_071363.1	Q9H115
NP_071384.1	Q9H5V9
NP_071741.2	Q9BPX3
NP_072045.1	P62269
NP_073744.2	Q96TA1
NP_076956.1	O75223
NP_078880.2	Q9H6T3
NP_109591.1	P30740
NP_112182.1	Q9BTT0
NP_112420.1	P09651
NP_114368.1	P26599
NP_114414.2	Q9BY44
NP_115765.2	Q8N6H7
NP_115804.1	Q5JV73
NP_149073.1	P82979
NP_219482.1	Q969S3
NP_258412.1	Q9BY32
NP_444504.1	Q92990
NP_478059.1	Q9Y617
NP_510965.1	Q9UHX1
NP_620147.1	Q8WVC0
NP_620164.1	Q96DG6
NP_689942.2	Q5TFE4
NP_733821.1	P02545
NP_775882.2	Q52LJ0
NP_789845.1	Q9H2U2
NP_803193.2	Q86W92
NP_817092.1	O15355
NP_852136.1	P35250
NP_863654.1	O00154
NP_976225.1	O95218
XP_005267899.1	Q6IN85
NP_000062.1	P35520
NP_000066.1	P11802
NP_000132.3	P21802
NP_000134.2	P07954
NP_000160.1	P06280
NP_000166.2	P06744
NP_000168.1	P06396
NP_000185.1	P00492
NP_000215.1	P05783
NP_000280.1	P08237
NP_000356.1	P60174
NP_000691.1	P04083
NP_000782.1	P00374
NP_000810.1	P22102
NP_000894.1	P15559
NP_000909.2	P07237
NP_000933.1	P23284
NP_000936.1	P63098
NP_000937.1	P49642
NP_000967.1	P30050
NP_000968.2	P26373
NP_000969.1	P62829
NP_000971.1	Q02543
NP_000972.1	P84098
NP_000975.2	P62750
NP_000979.1	P61353
NP_000987.2	P18077
NP_000990.1	P63173
NP_000994.1	P05386
NP_000997.1	P61247
NP_000998.1	P62701
NP_001001520.1	Q7Z4V5
NP_001005273.1	Q12873
NP_001006.1	P62280
NP_001007.2	P25398
NP_001013858.1	Q9Y6D9
NP_001017.1	P62847
NP_001020241.1	P62263
NP_001020262.1	Q8NE71
NP_001021.1	P42677
NP_001022.1	P62857
NP_001024.1	P23921
NP_001027392.1	P61764
NP_001034554.1	Q13243
NP_001034581.1	Q14192
NP_001035830.1	A6NDG6
NP_001072989.1	Q86UP2
NP_001072992.1	P22234
NP_001073331.1	P07108
NP_001073901.1	Q9C0B1
NP_001074248.1	O00159
NP_001091742.1	Q01581
NP_001093327.1	Q9Y6K9
NP_001093869.1	Q29RF7
NP_001096137.1	P25789
NP_001099032.1	O95155
NP_001104026.1	P21333
NP_001106653.1	P25440
NP_001116849.1	Q99497
NP_001120674.1	Q5JVF3
NP_001121620.1	P02786
NP_001124384.1	Q9Y2Z0
NP_001124463.1	Q9Y4L1
NP_001127910.1	Q86SQ0
NP_001128680.1	P26885
NP_001128715.1	Q13428
NP_001129676.1	Q9P258
NP_001137357.1	O14974
NP_001137434.1	A6NHC0
NP_001137533.1	P53618
NP_001138880.1	Q15233
NP_001142.2	P12235
NP_001145.1	P08758
NP_001148.1	P50995
NP_001153586.1	Q8WUR7
NP_001157633.1	Q5H9R7
NP_001157945.1	Q5T0N5
NP_001159477.1	P11171
NP_001167568.1	P07195
NP_001172006.1	P52565
NP_001173.2	P49419
NP_001180500.1	P21291
NP_001181883.1	P43243
NP_001186170.1	Q16719
NP_001191676.1	P35251
NP_001191786.1	Q15369
NP_001234926.1	P30622
NP_001245244.1	Q9H8V3
NP_001245282.1	Q15029
NP_001245286.1	P37235
NP_001257411.1	O00231
NP_001258753.1	P35237
NP_001258982.1	Q9Y605
NP_001265281.1	P21399
NP_001265485.1	O15145
NP_001265585.1	P62318
NP_001273501.1	O75150
NP_001274272.1	Q9NRX4
NP_001275891.1	Q15642
NP_001305117.1	P61978
NP_001307.2	P55060
NP_001307414.1	Q9H4I3
NP_001307847.1	P06493
NP_001309722.1	P14735
NP_001309774.1	Q7Z2Z2
NP_001338905.1	Q3LXA3
NP_001339425.1	P08243
NP_001340.2	P14868
NP_001348.2	Q08211
NP_001351927.1	P49848
NP_001352542.1	Q9P2E9
NP_001352948.1	Q5VT25
NP_001352986.1	Q01804
NP_001353175.2	Q08379
NP_001354250.1	Q96Q11
NP_001356441.1	P40763
NP_001362590.1	Q5VW32
NP_001363786.1	P40222
NP_001371658.1	P27816
NP_001373349.1	Q14116
NP_001373429.1	P42345
NP_001373629.1	Q9NYF8
NP_001378.1	Q14195
NP_001387.2	Q13627
NP_001395.1	P26641
NP_001448.2	O75369
NP_001484.1	P31150
NP_001524.2	P14866
NP_001748.1	P16152
NP_001830.1	Q15417
NP_001952.1	P13639
NP_002052.1	P48507
NP_002071.2	P00505
NP_002087.2	P35269
NP_002100.2	P12081
NP_002141.2	P32754
NP_002147.2	P10809
NP_002286.2	P08865
NP_002328.1	P30533
NP_002379.4	P25205
NP_002385.3	P08195
NP_002408.3	P46013
NP_002442.2	Q13126
NP_002464.1	P35579
NP_002473.2	P49321
NP_002615.2	Q99471
NP_002619.1	P35080
NP_002645.3	P14618
NP_002721.1	P17612
NP_002779.1	P25788
NP_002786.2	P49720
NP_002790.1	Q99436
NP_002793.2	P62191
NP_002794.1	P35998
NP_002796.4	P62195
NP_002800.2	O43242
NP_002805.1	O75832
NP_002807.1	O00232
NP_002813.3	Q12792
NP_002897.1	P35241
NP_002943.2	P15880
NP_003016.1	Q99961
NP_003078.2	O76070
NP_003083.1	P08579
NP_003090.2	Q13596
NP_003118.2	Q13813
NP_003119.2	Q01082
NP_003124.1	P49458
NP_003214.1	Q01664
NP_003282.2	P29144
NP_003290.1	P14625
NP_003320.2	P10599
NP_003325.2	P22314
NP_003330.1	P62837
NP_003341.1	Q15819
NP_003363.1	P61758
NP_003371.2	P08670
NP_003698.1	Q9Y265
NP_003706.2	O60763
NP_003746.2	O75821
NP_003749.2	O75822
NP_003783.1	O60869
NP_003786.1	O60493
NP_003893.2	Q96AE4
NP_003899.2	P20042
NP_003959.3	Q8TBC4
NP_003960.1	P61081
NP_004035.2	P31939
NP_004073.2	Q14203
NP_004111.2	P32456
NP_004160.3	P34896
NP_004227.1	P61201
NP_004275.4	Q86WJ1
NP_004291.1	P24666
NP_004437.2	P07814
NP_004498.1	O60921
NP_004513.1	O60282
NP_004517.2	P49736
NP_004598.1	O75347
NP_004690.1	Q14320
NP_004729.1	O95292
NP_004730.2	O94776
NP_004795.1	O76071
NP_004902.1	P13667
NP_004955.2	Q13547
NP_004981.2	P56192
NP_005013.1	P07737
NP_005057.1	P23246
NP_005073.2	Q14258
NP_005091.2	Q02952
NP_005100.1	O95747
NP_005106.2	Q14764
NP_005156.1	P09972
NP_005304.3	P30101
NP_005331.1	P49773
NP_005436.1	Q9UQE7
NP_005462.1	P46926
NP_005490.1	Q9UBT2
NP_005554.1	P16949
NP_005582.1	P49959
NP_005611.1	P31949
NP_005678.3	Q9NSD9
NP_005711.1	O15143
NP_005712.1	P61158
NP_005745.1	Q13283
NP_005753.1	Q13263
NP_005795.2	O00148
NP_005868.1	Q15459
NP_005900.2	P46821
NP_005908.1	P40925
NP_005954.3	P12882
NP_005984.3	Q9BTW9
NP_005989.3	P49368
NP_005990.1	Q99598
NP_006001.5	P55145
NP_006088.2	P24844
NP_006139.1	Q14847
NP_006176.2	Q14980
NP_006182.2	Q9UQ80
NP_006214.3	Q9Y237
NP_006280.3	Q9Y490
NP_006303.4	Q9Y618
NP_006316.1	P62826
NP_006364.2	Q99536
NP_006421.2	P50991
NP_006436.3	Q6P2Q9
NP_006547.1	Q15126
NP_006588.1	P11142
NP_006704.3	P53999
NP_006730.2	P33992
NP_006747.1	P23193
NP_006750.3	Q16851
NP_006752.1	P62258
NP_006808.1	P30040
NP_006816.2	Q07065
NP_006833.2	Q13435
NP_008854.2	Q99470
NP_008867.2	P55854
NP_008921.1	Q9Y6W5
NP_008933.2	Q16186
NP_008937.1	O43809
NP_008938.2	Q16630
NP_008996.1	Q16543
NP_009029.3	P53675
NP_009035.3	P62906
NP_009057.1	P55072
NP_009096.2	Q15428
NP_009194.2	O14579
NP_036205.1	P48643
NP_036226.2	P30044
NP_036256.2	Q9UHD1
NP_036335.1	Q9UBQ7
NP_036365.1	Q15042
NP_036526.2	Q9UHV9
NP_036611.2	P61981
NP_037473.3	Q9NTK5
NP_037506.2	Q8WUM4
NP_054888.3	Q9BY43
NP_055083.1	Q15555
NP_055095.2	O75937
NP_055115.1	P67812
NP_055118.1	O00541
NP_055121.1	Q9Y3I0
NP_055271.2	Q53EL6
NP_055277.1	O15116
NP_055414.2	Q9UNF1
NP_055464.1	Q14151
NP_055629.1	Q15008
NP_055680.3	Q15021
NP_055706.1	Q13442
NP_055768.3	Q9Y2L1
NP_056338.2	Q9Y3B8
NP_056357.1	Q9HAU5
NP_056377.1	O94888
NP_056380.3	O94822
NP_056414.1	O95394
NP_056422.2	Q9Y3Y2
NP_056988.3	O60841
NP_056997.1	O95881
NP_057030.3	Q9BRX2
NP_057122.2	Q9Y3A5
NP_057215.3	P61026
NP_057376.2	Q12931
NP_057385.3	Q9UHW5
NP_057484.4	Q9NX55
NP_057491.2	Q9BY42
NP_060102.1	Q9NXV6
NP_060110.4	Q5VZK9
NP_060140.2	Q96FW1
NP_060217.1	Q8IWZ3
NP_060225.4	Q08J23
NP_060598.3	Q2NL82
NP_060621.3	Q5UIP0
NP_060692.3	Q9NVD7
NP_060703.3	Q8N543
NP_060760.2	Q96G03
NP_061155.2	Q9NQW6
NP_061174.1	Q9P2B4
NP_061819.2	Q9NR45
NP_061820.1	P99999
NP_061961.2	Q8N7H5
NP_064505.1	Q9NYU2
NP_064524.3	Q9BUT1
NP_064581.2	Q9HCS7
NP_064709.2	Q6FI81
NP_065393.1	Q9NQC3
NP_065750.1	Q8WXI9
NP_065816.2	Q5T4S7
NP_066272.1	O00151
NP_066545.3	Q14691
NP_066952.1	Q15181
NP_066953.1	P62937
NP_073568.2	Q9H1E3
NP_075565.2	Q96BR5
NP_077734.2	P47712
NP_078895.2	Q9HA64
NP_079100.2	Q6PJT7
NP_079229.2	Q14CX7
NP_079422.1	Q9GZZ1
NP_110379.2	P17987
NP_110517.2	Q8WYA6
NP_112556.2	Q99729
NP_112738.1	Q14103
NP_114032.2	Q00839
NP_115593.3	O75179
NP_115683.3	Q5T6V5
NP_116116.1	Q16352
NP_116126.3	Q03252
NP_150093.1	Q96QR8
NP_573566.2	P42704
NP_619520.1	Q7L2E3
NP_653171.1	Q9H910
NP_653210.2	Q96MW1
NP_653263.2	Q8TAA3
NP_683720.2	P28062
NP_689419.3	Q9UNH7
NP_689478.1	Q96K17
NP_689953.1	P31937
NP_690866.1	O75663
NP_733779.1	P63208
NP_786924.2	Q8N806
NP_821133.1	P07437
NP_848927.2	Q86UE4
NP_891553.2	Q07866
NP_892021.1	Q5BKZ1
NP_919415.2	Q9P0L0
NP_958782.1	Q15149
NP_000041.2	P00966
NP_000058.1	P00918
NP_000091.1	P04080
NP_000149.4	Q04446
NP_000170.1	P52701
NP_000260.1	P15531
NP_000445.1	P00441
NP_000652.2	P32969
NP_000683.3	P30837
NP_000703.2	P53004
NP_000875.2	P12268
NP_000886.1	P09960
NP_000959.2	P36578
NP_000962.2	P18124
NP_000970.1	Q07020
NP_000974.1	P35268
NP_000977.1	P83731
NP_000980.1	P62888
NP_000993.1	P05388
NP_000995.1	P05387
NP_001000.2	P46782
NP_001002857.1	P07355
NP_001004.2	P46781
NP_001005.1	P46783
NP_001009.1	P62841
NP_001013.1	P39019
NP_001014.1	P60866
NP_001015048.1	Q9UL15
NP_001015877.1	Q8IWS0
NP_001018077.1	Q8NC51
NP_001018080.1	Q9BR76
NP_001019.1	P62851
NP_001019820.1	P27824
NP_001020.2	P62854
NP_001023.1	P62273
NP_001032360.1	P55884
NP_001032752.1	P24534
NP_001034891.1	P60953
NP_001035207.1	Q96P48
NP_001035810.1	P11413
NP_001055.1	P29401
NP_001058.2	P11388
NP_001093.1	P12814
NP_001099000.2	Q01518
NP_001104547.1	P15311
NP_001116293.1	Q01105
NP_001117.2	P30520
NP_001118.3	Q10567
NP_001120683.1	A0MZ66
NP_001121689.1	O75475
NP_001123479.1	P15170
NP_001129123.1	P19525
NP_001129293.1	P14324
NP_001129675.1	Q96CT7
NP_001130034.1	Q9Y2D5
NP_001139247.1	Q13451
NP_001139580.1	Q14914
NP_001139697.1	Q14CN4
NP_001146.2	P08133
NP_001158230.1	P31321
NP_001172110.1	O15212
NP_001186652.1	P29373
NP_001193996.1	Q7L1Q6
NP_001202.5	O60566
NP_001231178.1	P27695
NP_001243692.1	Q9NUQ9
NP_001248342.1	Q13561
NP_001269373.1	Q9H4M9
NP_001269624.1	Q9H098
NP_001275905.1	P12956
NP_001303.1	P52943
NP_001307894.1	Q00341
NP_001310548.1	Q9H3U1
NP_001317160.1	P55209
NP_001333374.1	Q09666
NP_001334.2	P98082
NP_001340275.1	P06733
NP_001341661.1	Q96IZ0
NP_001341935.1	P06748
NP_001350.1	Q16698
NP_001350300.1	Q9P013
NP_001353064.1	P30085
NP_001353176.1	Q9HC38
NP_001354482.1	P36639
NP_001354845.1	Q9H0U3
NP_001358374.1	Q3MHD2
NP_001364889.1	Q8IXT5
NP_001366242.1	Q9Y5M8
NP_001366537.1	P14314
NP_001393411.1	P68032
NP_001408.2	P23588
NP_001609.2	P09874
NP_001753.1	P40227
NP_001778.2	P21127
NP_001958.2	Q14240
NP_001975.1	P10768
NP_002044.2	P32455
NP_002134.2	P84074
NP_002148.1	P61604
NP_002259.1	O00629
NP_002618.1	Q01813
NP_002622.2	P52209
NP_002624.2	P36871
NP_002630.2	P36952
NP_002722.1	P22694
NP_002777.1	P25786
NP_002787.2	P28070
NP_002788.1	P28074
NP_002797.4	P62333
NP_002799.3	Q13200
NP_002803.2	P48556
NP_002808.3	Q9UNM6
NP_002809.2	Q9UL46
NP_002952.1	P26447
NP_003079.1	Q16658
NP_003081.2	P09661
NP_003091.2	O60749
NP_003336.1	P63279
NP_003338.1	P68036
NP_003350.1	O60701
NP_003395.1	P31946
NP_003581.1	Q13618
NP_003647.1	Q14012
NP_003668.2	O43583
NP_003671.1	P54577
NP_003673.3	Q8WXG6
NP_003741.1	Q14152
NP_003818.2	P54920
NP_003866.1	P49915
NP_003925.1	Q96I24
NP_003931.2	Q92995
NP_003997.2	P11532
NP_004095.4	P49327
NP_004138.1	Q9Y295
NP_004271.1	O43324
NP_004362.2	P53621
NP_004441.1	P84090
NP_004550.2	P67809
NP_004572.3	Q92696
NP_004621.2	Q15637
NP_004699.1	O14737
NP_004716.1	O43684
NP_004732.2	Q14978
NP_004881.2	O75391
NP_004930.1	Q92499
NP_005130.1	P12429
NP_005142.1	P54578
NP_005410.1	P52630
NP_005689.2	O14828
NP_005726.1	P42025
NP_005792.1	P41567
NP_005889.3	Q14444
NP_005909.2	P40926
NP_006098.2	O95232
NP_006126.1	P52907
NP_006215.1	Q00169
NP_006236.1	Q14738
NP_006247.1	Q16513
NP_006296.1	P39687
NP_006377.2	Q92841
NP_006433.2	Q14919
NP_006591.1	Q9Y266
NP_006592.3	Q15185
NP_006796.1	Q13151
NP_008835.5	P78527
NP_008868.3	P61956
NP_008877.2	O15020
NP_009109.3	Q9Y3F4
NP_009173.1	Q9UMR2
NP_009330.1	P42224
NP_036192.2	O00429
NP_036243.1	O95433
NP_036531.1	P48739
NP_036565.2	O75533
NP_054733.2	O75643
NP_054786.2	Q9BQ69
NP_055045.2	Q9UHB9
NP_055093.2	O95757
NP_055134.2	Q9Y2U8
NP_055177.2	Q6NVY1
NP_055192.1	Q99543
NP_055268.1	O43633
NP_055317.1	Q9UMS4
NP_055484.3	Q8N1F7
NP_055551.1	Q15004
NP_055555.1	P38919
NP_055567.2	Q15005
NP_055647.2	O60343
NP_055792.1	Q9UKV3
NP_055944.2	Q14141
NP_056107.1	Q9BSJ8
NP_056289.2	Q9Y3Z3
NP_056444.3	Q8WWY3
NP_056449.1	Q96EK5
NP_056456.1	Q9UGI8
NP_056986.2	O95071
NP_056992.4	Q9BXP5
NP_057068.1	Q9Y5K5
NP_057078.1	Q9Y5K8
NP_057111.1	Q53H82
NP_057143.1	Q9Y3C6
NP_060555.2	Q96P70
NP_060597.4	Q9BQ52
NP_060599.1	Q9NVS9
NP_060640.2	Q96P16
NP_060671.3	Q9NVG8
NP_062552.2	Q7L2J0
NP_065752.1	Q9ULR0
NP_066299.2	P60660
NP_066932.1	P62328
NP_066964.1	P13010
NP_067038.1	Q9NQG5
NP_067077.1	P57076
NP_068733.1	Q9Y281
NP_071496.1	Q15056
NP_071933.2	Q9NT62
NP_073608.4	Q8TC07
NP_079031.2	Q9NWH9
NP_079170.2	Q9BSC4
NP_110390.1	P82970
NP_110424.1	Q9H0Q0
NP_112597.4	Q9BZE2
NP_115997.5	Q8IUG5
NP_149129.2	Q05682
NP_258259.1	Q3SY84
NP_476516.1	Q9BXJ9
NP_612430.2	Q96ER3
NP_653174.3	Q0ZGT2
NP_653311.1	Q9P0V9
NP_659731.1	P46734
NP_690902.1	Q99829
NP_733759.1	Q96A08
NP_777568.1	Q8IVM0
NP_783316.2	P04732
NP_942133.1	Q13085
NP_996670.1	Q9UBU8
